[5180] => stdClass Object
    (
        [id_contract] => 5180
        [type] => 1
        [id_recipe] => 1
        [stage] => 1
        [stages] => 10
        [count] => 222
        [price] => 0.08
    )

[5181] => stdClass Object
    (
        [id_contract] => 5181
        [type] => 2
        [id_recipe] => 2
        [stage] => 1
        [stages] => 4
        [count] => 239
        [price] => 102.00
    )